# A tibble: 36 x 3
   borrowers_country correlation1600 correlation400k
   <fct>                       <dbl>           <dbl>
 1 Australia                 0.904           0.945  
 2 Austria                   0.860           0.545  
 3 Belgium                   0.521           0.768  
 4 Brazil                   -0.755           0.934  
 5 Canada                    0.00635         0.00313
 6 Chile                     0.569           0.905  
 7 China                     0.834           0.959  
 8 Colombia                  0.355           0.894  
 9 Czech Republic           -0.612          -0.539  
10 Denmark                   0.798           0.710  
# ... with 26 more rows
# A tibble: 36 x 3
   borrowers_country correlation1600 correlation400k
   <fct>                       <dbl>           <dbl>
 1 Australia                 0.904           0.945  
 2 Austria                   0.860           0.545  
 3 Belgium                   0.521           0.768  
 4 Brazil                   -0.755           0.934  
 5 Canada                    0.00635         0.00313
 6 Chile                     0.569           0.905  
 7 China                     0.834           0.959  
 8 Colombia                  0.355           0.894  
 9 Czech Republic           -0.612          -0.539  
10 Denmark                   0.798           0.710  
# ... with 26 more rows
# A tibble: 36 x 3
   borrowers_country correlation1600 correlation400k
   <fct>                       <dbl>           <dbl>
 1 Australia                 0.904           0.945  
 2 Austria                   0.860           0.545  
 3 Belgium                   0.521           0.768  
 4 Brazil                   -0.755           0.934  
 5 Canada                    0.00635         0.00313
 6 Chile                     0.569           0.905  
 7 China                     0.834           0.959  
 8 Colombia                  0.355           0.894  
 9 Czech Republic           -0.612          -0.539  
10 Denmark                   0.798           0.710  
# ... with 26 more rows
# A tibble: 36 x 3
   borrowers_country correlation1600 correlation400k
   <fct>                       <dbl>           <dbl>
 1 Australia                 0.904           0.945  
 2 Austria                   0.860           0.545  
 3 Belgium                   0.521           0.768  
 4 Brazil                   -0.755           0.934  
 5 Canada                    0.00635         0.00313
 6 Chile                     0.569           0.905  
 7 China                     0.834           0.959  
 8 Colombia                  0.355           0.894  
 9 Czech Republic           -0.612          -0.539  
10 Denmark                   0.798           0.710  
# ... with 26 more rows
…
